Division,WeightClassKg,Place,Name,Team,BodyweightKg,Best3SquatKg,Best3BenchKg,Best3DeadliftKg,TotalKg,Equipment,Event,Sex
Boys,51.71,1,Grayson Danner,Conroe The Woodlands,49.9,90.72,54.43,113.4,258.55,Single-ply,SBD,M
Boys,51.71,2,Ricardo Villafana,Splendora,48.44,74.84,63.5,95.25,233.6,Single-ply,SBD,M
Boys,51.71,3,Ross Cowart,Huntsville,50.17,70.31,56.7,97.52,224.53,Single-ply,SBD,M
Boys,51.71,4,Noah Courrelle,Shepherd,40.37,72.57,36.29,83.91,192.78,Single-ply,SBD,M
Boys,59.87,1,Jeremy Charles,Willis,55.97,151.95,102.06,158.76,412.77,Single-ply,SBD,M
Boys,55.79,2,Dillan Silivas,New Waverly,53.34,113.4,52.16,106.59,272.16,Single-ply,SBD,M
Boys,55.79,3,Pyno Poul,Shepherd,55.61,106.59,56.7,104.33,267.62,Single-ply,SBD,M
Boys,55.79,4,Brandon Stockerl,Conroe The Woodlands,53.8,90.72,58.97,113.4,263.08,Single-ply,SBD,M
Boys,59.87,5,Kody Quibodeaux,Shepherd,55.97,99.79,52.16,111.13,263.08,Single-ply,SBD,M
Boys,59.87,6,Ryan Martinez,Huntsville,55.97,86.18,65.77,95.25,247.21,Single-ply,SBD,M
Boys,55.79,7,David Lavderbaugh,Conroe The Woodlands,55.61,79.38,52.16,106.59,238.14,Single-ply,SBD,M
Boys,55.79,DQ,Brett Sangster,Shepherd,54.79,90.72,56.7,102.06,,Single-ply,SBD,M
Boys,55.79,DQ,Garrett Kelso,Splendora,54.88,145.15,65.77,,,Single-ply,SBD,M
Boys,55.79,DQ,Ryan Collette,Huffman Hargrave,52.53,90.72,54.43,,,Single-ply,SBD,M
Boys,67.13,1,Charles Dickerson,Huffman Hargrave,60.06,142.88,90.72,142.88,376.48,Single-ply,SBD,M
Boys,59.87,2,Lucas Erickson,Splendora,59.15,131.54,88.45,142.88,362.87,Single-ply,SBD,M
Boys,59.87,3,Grayson Brown,Conroe The Woodlands,59.15,140.61,74.84,140.61,356.07,Single-ply,SBD,M
Boys,59.87,4,Harley Hnatek,Splendora,56.43,113.4,83.91,151.95,349.27,Single-ply,SBD,M
Boys,59.87,5,Ty Huff,New Waverly,58.6,127.01,63.5,133.81,324.32,Single-ply,SBD,M
Boys,59.87,6,Trent Taylor,Shepherd,57.06,124.74,61.23,117.93,303.91,Single-ply,SBD,M
Boys,67.13,7,Keyshawn Whitehouse,Conroe The Woodlands,59.96,104.33,61.23,124.74,290.3,Single-ply,SBD,M
Boys,59.87,8,Tyler Idom,New Caney Porter,59.24,104.33,72.57,111.13,288.03,Single-ply,SBD,M
Boys,59.87,9,Javier Vela,Shepherd,57.15,90.72,56.7,127.01,274.42,Single-ply,SBD,M
Boys,59.87,DQ,Daniel Langlois,Huffman Hargrave,57.88,,,,,Single-ply,SBD,M
Boys,67.13,1,Nate Jones,Shepherd,63.05,183.7,102.06,183.7,469.47,Single-ply,SBD,M
Boys,67.13,2,Brock Saxton,New Waverly,67.13,147.42,99.79,167.83,415.04,Single-ply,SBD,M
Boys,67.13,3,Rory Jefferson,Huntsville,62.96,138.35,86.18,158.76,383.29,Single-ply,SBD,M
Boys,67.13,4,Cesar Marroquin,Huffman Hargrave,65.59,136.08,97.52,142.88,376.48,Single-ply,SBD,M
Boys,67.13,5,Austin Fry,Huffman Hargrave,65.59,117.93,90.72,124.74,333.39,Single-ply,SBD,M
Boys,67.13,6,Max Martinez,Conroe The Woodlands,62.87,92.99,54.43,111.13,258.55,Single-ply,SBD,M
Boys,67.13,7,Kalvin Doyle,Shepherd,62.41,52.16,43.09,61.23,156.49,Single-ply,SBD,M
Boys,67.13,DQ,Josh Courvelle,Shepherd,65.77,161.03,,,,Single-ply,SBD,M
Boys,74.84,DQ,Chris Eason,Splendora,67.22,142.88,,,,Single-ply,SBD,M
Boys,67.13,DQ,Humberto Avila,Huntsville,65.32,97.52,,,,Single-ply,SBD,M
Boys,74.84,1,Josh Goolsby,Huntsville,69.76,170.1,108.86,226.8,505.76,Single-ply,SBD,M
Boys,74.84,2,Ritchie Lyttle,New Caney Porter,68.95,185.97,111.13,176.9,474,Single-ply,SBD,M
Boys,74.84,3,Jeremy Bennett,New Waverly,74.57,156.49,95.25,183.7,435.45,Single-ply,SBD,M
Boys,74.84,4,Luis Gallaga,Willis,73.75,127.01,77.11,145.15,349.27,Single-ply,SBD,M
Boys,74.84,5,Ian Harris,Conroe The Woodlands,70.76,129.27,77.11,136.08,342.46,Single-ply,SBD,M
Boys,74.84,DQ,Dave Bagwell,New Caney Porter,74.75,158.76,95.25,,,Single-ply,SBD,M
Boys,82.1,1,Arthur Maxwell,Shepherd,77.66,235.87,124.74,219.99,580.6,Single-ply,SBD,M
Boys,82.1,2,Anthony Lamb,Splendora,80.74,188.24,97.52,197.31,483.08,Single-ply,SBD,M
Boys,82.1,3,Aj Box,Shepherd,75.3,174.63,113.4,176.9,464.93,Single-ply,SBD,M
Boys,82.1,4,Kyle Ray,Splendora,81.83,174.63,102.06,185.97,462.66,Single-ply,SBD,M
Boys,82.1,5,Jackson Godby,Huntsville,77.84,156.49,92.99,183.7,433.18,Single-ply,SBD,M
Boys,82.1,6,Maison Jacobs,Splendora,79.38,174.63,79.38,149.69,403.7,Single-ply,SBD,M
Boys,82.1,7,Shane Lummus,Huffman Hargrave,82.1,113.4,97.52,167.83,378.75,Single-ply,SBD,M
Boys,82.1,8,Donovan Orosco,Huffman Hargrave,77.47,142.88,83.91,147.42,374.21,Single-ply,SBD,M
Boys,82.1,9,Josh Kiser,Conroe The Woodlands,76.84,129.27,81.65,156.49,367.41,Single-ply,SBD,M
Boys,82.1,10,Jacob Wallace #2,Conroe The Woodlands,79.02,129.27,77.11,140.61,347,Single-ply,SBD,M
Boys,89.81,1,Eric Blanco,Splendora,88.72,190.51,124.74,208.65,523.9,Single-ply,SBD,M
Boys,89.81,2,Kevin Stephens,Shepherd,89.18,127.01,70.31,172.37,369.68,Single-ply,SBD,M
Boys,89.81,3,Rene Troche-Baez,Conroe The Woodlands,87.63,136.08,72.57,156.49,365.14,Single-ply,SBD,M
Boys,89.81,4,Dalton Cyr,Huntsville,89.81,120.2,77.11,165.56,362.87,Single-ply,SBD,M
Boys,89.81,5,Jose Morales,Huntsville,83.19,124.74,65.77,170.1,360.61,Single-ply,SBD,M
Boys,89.81,6,Chris Jansen,Conroe The Woodlands,86.18,117.93,74.84,142.88,335.66,Single-ply,SBD,M
Boys,89.81,7,Matt Frazier,Huffman Hargrave,83.46,99.79,90.72,124.74,315.25,Single-ply,SBD,M
Boys,99.79,1,John Neville,Huntsville,93.17,208.65,113.4,235.87,557.92,Single-ply,SBD,M
Boys,99.79,2,Zac Adams,Splendora,93.89,208.65,120.2,215.46,544.31,Single-ply,SBD,M
Boys,99.79,3,Chris Baker,Shepherd,99.34,204.12,113.4,183.7,501.22,Single-ply,SBD,M
Boys,99.79,4,Dustin Hoeffler,New Caney Porter,91.99,190.51,124.74,174.63,489.88,Single-ply,SBD,M
Boys,99.79,5,Collin Hayman,Willis,91.9,149.69,106.59,149.69,405.97,Single-ply,SBD,M
Boys,99.79,6,Caleb Johnson,Huffman Hargrave,98.43,158.76,90.72,145.15,394.63,Single-ply,SBD,M
Boys,99.79,7,David Salee,New Waverly,99.34,102.06,92.99,158.76,353.8,Single-ply,SBD,M
Boys,109.77,1,Nathan Ramon,Huntsville,104.69,165.56,97.52,183.7,446.79,Single-ply,SBD,M
Boys,109.77,2,Justin Graham,New Waverly,107.59,142.88,83.91,183.7,410.5,Single-ply,SBD,M
Boys,109.77,DQ,Chris Martin,Splendora,102.51,106.59,,,,Single-ply,SBD,M
Boys,109.77,DQ,Justin Franklin,New Caney Porter,107.95,,,,,Single-ply,SBD,M
Boys,109.77,DQ,Jacob Clifton,New Caney Porter,100.52,176.9,,,,Single-ply,SBD,M
Boys,124.74,1,Parker Blount,Huntsville,114.03,263.08,147.42,226.8,637.3,Single-ply,SBD,M
Boys,124.74,2,Luis Cruz,Shepherd,112.13,215.46,115.67,208.65,539.77,Single-ply,SBD,M
Boys,124.74,3,Joe Ogrodowicz,Willis,114.12,222.26,113.4,163.29,498.95,Single-ply,SBD,M
Boys,124.74,DQ,Josh Cuellar,New Caney Porter,124.74,,,,,Single-ply,SBD,M
Boys,124.74+,1,Casey Cress,Willis,126.1,158.76,97.52,154.22,410.5,Single-ply,SBD,M
Boys,124.74+,2,Cody Jackson,New Waverly,143.79,142.88,88.45,131.54,362.87,Single-ply,SBD,M
Boys,,NS,Colby Clark,Shepherd,,,,,,Single-ply,SBD,M
Boys,,NS,Philip Holden,Shepherd,,,,,,Single-ply,SBD,M
Boys,,NS,Ben Saucedo,Shepherd,,,,,,Single-ply,SBD,M
Boys,,NS,Miles Ash,Shepherd,,,,,,Single-ply,SBD,M
