Name,WeightClassKg,Division,Sex,Best3SquatKg,Best3BenchKg,Best3DeadliftKg,TotalKg,Event,Equipment,Place
Liberty Winter,48,Open,F,122.5,52.5,135,310,SBD,Single-ply,1
Ginger Lord,48,Open,F,100,50,147.5,297.5,SBD,Single-ply,2
Susan Elwyn,52,Open,F,105,75,115,295,SBD,Single-ply,1
S. Bryant,52,Open,F,95,40,132.5,267.5,SBD,Single-ply,2
D. Grieshaber,52,Open,F,92.5,45,110,247.5,SBD,Single-ply,3
B. Silverman,52,Open,F,92.5,42.5,107.5,242.5,SBD,Single-ply,4
C. Yi-Young,56,Open,F,90,32.5,112.5,235,SBD,Single-ply,1
Hollie Allaire,60,Open,F,130,62.5,145,337.5,SBD,Single-ply,1
Terri Hutter,60,Open,F,125,42.5,130,297.5,SBD,Single-ply,2
R. Johnson,60,Open,F,92.5,52.5,145,290,SBD,Single-ply,3
B. Stevens,60,Open,F,95,40,135,270,SBD,Single-ply,4
Mary Barreira,67.5,Open,F,145,80,167.5,392.5,SBD,Single-ply,1
C. Foley,67.5,Open,F,102.5,50,157.5,310,SBD,Single-ply,2
C. Walter,67.5,Open,F,102.5,55,120,277.5,SBD,Single-ply,3
Kathy Lind,67.5,Open,F,152.5,,,,SBD,Single-ply,DQ
Jennifer Weyland,75,Open,F,182.5,112.5,195,490,SBD,Single-ply,1
Robin Helm,75,Open,F,110,65,127.5,302.5,SBD,Single-ply,2
A. Howe,75,Open,F,102.5,50,112.5,265,SBD,Single-ply,3
P. Chase,75,Open,F,85,52.5,125,262.5,SBD,Single-ply,4
A. Ratley,75,Open,F,85,52.5,105,242.5,SBD,Single-ply,5
Mich Greenspan,82.5,Open,F,145,62.5,155,362.5,SBD,Single-ply,1
C. Kennedy,82.5,Open,F,95,52.5,115,262.5,SBD,Single-ply,2
Sharon Mitnik,82.5+,Open,F,165,87.5,160,412.5,SBD,Single-ply,1
E. Resh,82.5+,Open,F,100,52.5,112.5,265,SBD,Single-ply,2
D. Hallowell,52,Open,M,120,72.5,150,342.5,SBD,Single-ply,1
Charles Lockard,52,Open,M,112.5,65,147.5,325,SBD,Single-ply,2
Dino Raposo,56,Open,M,190,112.5,185,487.5,SBD,Single-ply,1
S. Frostbaum,56,Open,M,150,127.5,150,427.5,SBD,Single-ply,2
N. Douville,56,Open,M,145,97.5,170,412.5,SBD,Single-ply,3
T. Lofaro,56,Open,M,155,62.5,,,SBD,Single-ply,DQ
E. McCorriston,56,Open,M,110,,,,SBD,Single-ply,DQ
Ray Houle,60,Open,M,197.5,120,205,522.5,SBD,Single-ply,1
Jerry Sylvia,60,Open,M,160,110,210,480,SBD,Single-ply,2
R. Portillo,60,Open,M,165,107.5,187.5,460,SBD,Single-ply,3
Lloyd Weinstein,60,Open,M,155,107.5,192.5,455,SBD,Single-ply,4
Stewart Cameron,60,Open,M,167.5,97.5,182.5,447.5,SBD,Single-ply,5
J. Millett,60,Open,M,127.5,100,157.5,385,SBD,Single-ply,6
R. Madison,60,Open,M,135,80,170,385,SBD,Single-ply,7
L. Silverman,60,Open,M,142.5,60,162.5,365,SBD,Single-ply,8
J. Ahrens,60,Open,M,102.5,82.5,147.5,332.5,SBD,Single-ply,9
Michael Ioannou,60,Open,M,,,,,SBD,Single-ply,DQ
Saul Shocket,67.5,Open,M,222.5,145,265,632.5,SBD,Single-ply,1
M. Grenier,67.5,Open,M,215,120,220,555,SBD,Single-ply,2
Fred Pfister,67.5,Open,M,172.5,112.5,257.5,542.5,SBD,Single-ply,3
A. Wood,67.5,Open,M,197.5,112.5,230,540,SBD,Single-ply,4
Jim Micik,67.5,Open,M,192.5,127.5,212.5,532.5,SBD,Single-ply,5
R. Cournoyer,67.5,Open,M,202.5,115,212.5,530,SBD,Single-ply,6
J. LaFlame,67.5,Open,M,187.5,100,227.5,515,SBD,Single-ply,7
J. Boyd,67.5,Open,M,172.5,90,220,482.5,SBD,Single-ply,8
E. Weinstein,67.5,Open,M,170,100,200,470,SBD,Single-ply,9
Michael Dampf,67.5,Open,M,172.5,107.5,187.5,467.5,SBD,Single-ply,10
T. McCloskey,67.5,Open,M,147.5,122.5,170,440,SBD,Single-ply,11
R. Garcia,67.5,Open,M,137.5,100,167.5,405,SBD,Single-ply,12
G. Friedman,67.5,Open,M,117.5,50,137.5,305,SBD,Single-ply,13
R. Umuno,67.5,Open,M,157.5,125,,,SBD,Single-ply,DQ
D. Strout,67.5,Open,M,167.5,,,,SBD,Single-ply,DQ
J. Rizzo,67.5,Open,M,,,,,SBD,Single-ply,DQ
D. Robinson,67.5,Open,M,,,,,SBD,Single-ply,DQ
Stephen Cardillo,75,Open,M,220,147.5,252.5,620,SBD,Single-ply,1
D. Sexton,75,Open,M,245,140,232.5,617.5,SBD,Single-ply,2
B. Thompson,75,Open,M,222.5,135,252.5,610,SBD,Single-ply,3
Ed Carp,75,Open,M,212.5,140,200,552.5,SBD,Single-ply,4
E. Butler,75,Open,M,180,132.5,237.5,550,SBD,Single-ply,5
M. Frey,75,Open,M,172.5,147.5,215,535,SBD,Single-ply,6
Scott Hughes #2,75,Open,M,180,137.5,215,532.5,SBD,Single-ply,7
R. Powers,75,Open,M,190,125,215,530,SBD,Single-ply,8
N. Berke,75,Open,M,185,117.5,215,517.5,SBD,Single-ply,9
D. Boyle,75,Open,M,190,102.5,205,497.5,SBD,Single-ply,10
F. Spencer,75,Open,M,155,122.5,182.5,460,SBD,Single-ply,11
M. Fabiano,75,Open,M,160,132.5,,,SBD,Single-ply,DQ
A. Edmour,75,Open,M,100,95,,,SBD,Single-ply,DQ
S. Burbank,75,Open,M,165,110,,,SBD,Single-ply,DQ
Carl Levin,75,Open,M,,,,,SBD,Single-ply,DQ
P. Bryant,75,Open,M,,,,,SBD,Single-ply,DQ
Tom Piazza,75,Open,M,,,,,SBD,Single-ply,DQ
S. Brown,75,Open,M,,,,,SBD,Single-ply,DQ
R. Strickland,75,Open,M,,,,,SBD,Single-ply,DQ
Mike Mecchella,82.5,Open,M,275,160,292.5,727.5,SBD,Single-ply,1
T. Clough,82.5,Open,M,242.5,157.5,302.5,702.5,SBD,Single-ply,2
C. Larocca,82.5,Open,M,250,192.5,257.5,700,SBD,Single-ply,3
David Micik,82.5,Open,M,227.5,150,250,627.5,SBD,Single-ply,4
D. Forti,82.5,Open,M,227.5,147.5,250,625,SBD,Single-ply,5
E. Roy,82.5,Open,M,217.5,142.5,242.5,602.5,SBD,Single-ply,6
J. Grenier,82.5,Open,M,225,120,250,595,SBD,Single-ply,7
J. Connell,82.5,Open,M,200,137.5,217.5,555,SBD,Single-ply,10
M. Intemann,82.5,Open,M,205,127.5,227.5,560,SBD,Single-ply,8
C. Campelli,82.5,Open,M,202.5,137.5,217.5,557.5,SBD,Single-ply,9
M. Matthews,82.5,Open,M,147.5,110,192.5,450,SBD,Single-ply,11
D. Maroney,82.5,Open,M,142.5,,,,SBD,Single-ply,DQ
Peter Stromberg,82.5,Open,M,192.5,,,,SBD,Single-ply,DQ
J. Kardum,82.5,Open,M,,,,,SBD,Single-ply,DQ
S. Bellavance,82.5,Open,M,200,,,,SBD,Single-ply,DQ
L. Caplan,82.5,Open,M,200,,,,SBD,Single-ply,DQ
P. Higgins,82.5,Open,M,227.5,,,,SBD,Single-ply,DQ
James van Allen,82.5,Open,M,,,,,SBD,Single-ply,DQ
James Gentile,82.5,Open,M,,,,,SBD,Single-ply,DQ
C. Campelli,82.5,Open,M,,,,,SBD,Single-ply,DQ
Robert Todt,90,Open,M,262.5,157.5,272.5,692.5,SBD,Single-ply,1
S. Quinzani,90,Open,M,262.5,165,262.5,690,SBD,Single-ply,2
D. Dawley,90,Open,M,267.5,137.5,237.5,642.5,SBD,Single-ply,3
J. Copeland,90,Open,M,217.5,167.5,245,630,SBD,Single-ply,4
Rick Capozzi,90,Open,M,227.5,145,250,622.5,SBD,Single-ply,5
M. Walrath,90,Open,M,232.5,127.5,257.5,617.5,SBD,Single-ply,6
John Pittman,90,Open,M,217.5,145,252.5,615,SBD,Single-ply,7
G. Paglia,90,Open,M,230,142.5,235,607.5,SBD,Single-ply,8
B. Catalini,90,Open,M,212.5,115,230,557.5,SBD,Single-ply,10
D. Simonetti,90,Open,M,192.5,102.5,227.5,522.5,SBD,Single-ply,11
B. Reardon,90,Open,M,237.5,117.5,250,605,SBD,Single-ply,9
E. Flori,90,Open,M,150,157.5,182.5,490,SBD,Single-ply,12
Tom Corrie,90,Open,M,245,,,,SBD,Single-ply,DQ
A. Maizel,90,Open,M,222.5,,,,SBD,Single-ply,DQ
J. Crawford,90,Open,M,,,,,SBD,Single-ply,DQ
B. English,90,Open,M,,,,,SBD,Single-ply,DQ
P. O'Leary,90,Open,M,,,,,SBD,Single-ply,DQ
Jim Donahue,100,Open,M,290,195,285,770,SBD,Single-ply,1
Bill Giancola,100,Open,M,287.5,195,265,747.5,SBD,Single-ply,2
B. Lasorsa,100,Open,M,272.5,152.5,320,745,SBD,Single-ply,3
Dan Jackson #1,100,Open,M,275,177.5,282.5,735,SBD,Single-ply,4
Bernie Shalkowski,100,Open,M,255,177.5,280,712.5,SBD,Single-ply,5
Chris DiSangro,100,Open,M,272.5,147.5,267.5,687.5,SBD,Single-ply,6
Ronald Makarawicz,100,Open,M,265,170,250,685,SBD,Single-ply,7
Geo Reynolds,100,Open,M,250,167.5,255,672.5,SBD,Single-ply,8
K. Kiley,100,Open,M,192.5,185,260,637.5,SBD,Single-ply,9
Linc Gotshalk,100,Open,M,220,150,262.5,632.5,SBD,Single-ply,10
Bill Rosetti,100,Open,M,220,137.5,250,607.5,SBD,Single-ply,11
P. Halliwell,100,Open,M,197.5,145,222.5,565,SBD,Single-ply,12
R. Norton,100,Open,M,205,150,205,560,SBD,Single-ply,13
Joe Gionfriddo,100,Open,M,197.5,127.5,227.5,552.5,SBD,Single-ply,14
J. Apice,100,Open,M,217.5,107.5,227.5,552.5,SBD,Single-ply,15
S. Close,100,Open,M,160,125,205,490,SBD,Single-ply,16
Roger Paull,110,Open,M,330,205,282.5,817.5,SBD,Single-ply,1
D. Brosse,110,Open,M,287.5,220,295,802.5,SBD,Single-ply,2
Rick Britt,110,Open,M,287.5,187.5,317.5,792.5,SBD,Single-ply,3
Alan Snitkin,110,Open,M,285,185,320,790,SBD,Single-ply,4
Greg Kostas,110,Open,M,285,192.5,310,787.5,SBD,Single-ply,5
D. Miller,110,Open,M,265,165,275,705,SBD,Single-ply,6
Mike Patelis,110,Open,M,245,172.5,285,702.5,SBD,Single-ply,7
Craig Carvin,110,Open,M,252.5,155,280,687.5,SBD,Single-ply,9
J. Pignataro,110,Open,M,227.5,160,310,697.5,SBD,Single-ply,8
D. Dreher,110,Open,M,215,142.5,310,667.5,SBD,Single-ply,10
Dave Dallmeyer,110,Open,M,242.5,135,262.5,640,SBD,Single-ply,11
D. Bowman,110,Open,M,182.5,,,,SBD,Single-ply,DQ
B. Fiore,110,Open,M,,,,,SBD,Single-ply,DQ
B. Archenbault,110,Open,M,,,,,SBD,Single-ply,DQ
F. DosSantos,110,Open,M,,,,,SBD,Single-ply,DQ
Steve Sanderson,125,Open,M,350,205,310,865,SBD,Single-ply,1
Sammy Harris,125,Open,M,272.5,165,272.5,710,SBD,Single-ply,2
F. Venezia,125,Open,M,265,182.5,245,692.5,SBD,Single-ply,3
G. Stern,125,Open,M,250,177.5,237.5,665,SBD,Single-ply,4
William Slish,125,Open,M,250,140,265,655,SBD,Single-ply,5
M. Salvidio,125,Open,M,235,165,230,630,SBD,Single-ply,6
W. Andrews,125,Open,M,227.5,135,257.5,620,SBD,Single-ply,7
Ted Arcidi,125,Open,M,60,247.5,65,372.5,SBD,Single-ply,8
N. Cali,125,Open,M,,,,,SBD,Single-ply,DQ
Bill Romamiello,125+,Open,M,327.5,182.5,290,800,SBD,Single-ply,1
J. Dawson,125+,Open,M,272.5,195,282.5,750,SBD,Single-ply,2
