Place,Name,Age,Country,Division,BodyweightKg,WeightClassKg,Event,Equipment,Sex,Squat1Kg,Squat2Kg,Squat3Kg,Squat4Kg,Best3SquatKg,Bench1Kg,Bench2Kg,Bench3Kg,Bench4Kg,Best3BenchKg,Deadlift1Kg,Deadlift2Kg,Deadlift3Kg,Deadlift4Kg,Best3DeadliftKg,TotalKg
1,Anastasiya Amelina,22,Russia,F_JCR_WPC,59.9,60,SBD,Wraps,F,135,-145,-145,,135,65,70,-75,,70,150,160,,,160,365
1,Anastasiya Amelina,22,Russia,F_OCR_WPC,59.9,60,SBD,Wraps,F,135,-145,-145,,135,65,70,-75,,70,150,160,,,160,365
2,Blanka Baudyšová,39,Czechia,F_OCR_WPC,59.2,60,SBD,Wraps,F,70,90,105,,105,50,62.5,-70,,62.5,-90,90,110,,110,277.5
1,Elias Hiissa,14,Finland,M_TCR_1_WPC,60.6,67.5,SBD,Wraps,M,100,110,-120,,110,-82.5,85,-90,,85,145,155,160,,160,355
1,Vladimir Graivoronskiy,15,Russia,M_TCR_1_WPC,79.5,82.5,SBD,Wraps,M,105,115,-125,,115,75,80,82.5,,82.5,130,140,150,,150,347.5
1,Ladislav Škop,16,Czechia,M_TCR_2_WPC,77.5,82.5,SBD,Wraps,M,110,130,140,,140,80,90,-100,,90,140,160,170,-185,170,400
1,Jan Sedláček,19,Czechia,M_TCR_3_WPC,97.2,100,SBD,Wraps,M,120,-140,140,,140,90,100,-110,,100,160,180,-200,,180,420
DQ,Aleš Markič,22,Slovenia,M_JCR_WPC,74,75,SBD,Wraps,M,-125,-125,-125,,,,,,,,,,,,,
1,Aleksi Leikas,21,Finland,M_JCR_WPC,81.2,82.5,SBD,Wraps,M,130,142.5,-145,,142.5,90,97.5,100,,100,170,182.5,185,,185,427.5
1,Ville Antikainen,22,Finland,M_JCR_WPC,105.1,110,SBD,Wraps,M,190,210,-225,,210,125,135,,,135,260,-280,,,260,605
1,Ville Pehkonen,20,Finland,M_JCR_WPC,167.2,140+,SBD,Wraps,M,255,275,290,300,290,170,180,-190,,180,-220,220,,,220,690
1,Pavel Balážik,31,Slovakia,M_OCR_WPC,51.9,52,SBD,Wraps,M,100,-110,-110,,100,75,80,85,-87.5,85,120,130,137.5,142.5,137.5,322.5
1,Stanislav Marochko,29,Ukraine,M_OCR_WPC,67.2,67.5,SBD,Wraps,M,-190,-190,190,,190,130,137.5,-142.5,,137.5,210,220,221,-225,221,548.5
1,Sergey Aivazov,33,Russia,M_OCR_WPC,75,75,SBD,Wraps,M,175,190,202.5,,202.5,115,122.5,127.5,,127.5,200,220,240,,240,570
2,Karel Sazma,36,Czechia,M_OCR_WPC,73,75,SBD,Wraps,M,155,170,-175,,170,105,115,-120,,115,210,225,235,-255,235,520
1,Konstantin Konstantinov,29,Russia,M_OCR_WPC,79.8,82.5,SBD,Wraps,M,225,235,240,,240,160,167.5,-170,,167.5,255,272.5,-282.5,,272.5,680
1,Viktor Galaguz,27,Ukraine,M_OCR_WPC,89.6,90,SBD,Wraps,M,260,270,-276,,270,205,-216,-216,,205,300,-310,-310,,300,775
2,Alexey Bazhenov,33,Russia,M_OCR_WPC,88,90,SBD,Wraps,M,230,240,-250,,240,170,180,-185,,180,250,260,270,,270,690
3,Andriy Zhurakovskyi,34,Ukraine,M_OCR_WPC,89.5,90,SBD,Wraps,M,-220,-220,220,,220,150,160,-165,,160,215,230,-235,,230,610
1,Anton Obodovskyi,26,Ukraine,M_OCR_WPC,99.4,100,SBD,Wraps,M,320,-335,,,320,200,-210,210,,210,300,315,325,,325,855
2,Nikolai Fesaniuk,27,Russia,M_OCR_WPC,99.2,100,SBD,Wraps,M,250,265,275,,275,170,180,185,,185,-310,310,-325,,310,770
3,Petr Maceášik,35,Czechia,M_OCR_WPC,97.4,100,SBD,Wraps,M,240,250,-260,,250,-200,200,210,,210,280,-290,290,,290,750
4,Miettinen Juha,30,Finland,M_OCR_WPC,98.1,100,SBD,Wraps,M,245,265,-275,,265,160,170,175,,175,265,280,-290,,280,720
5,Azer Aliyev,25,Slovakia,M_OCR_WPC,98.7,100,SBD,Wraps,M,207.5,-215,-220,,207.5,140,152.5,-160,,152.5,220,240,-250,,240,600
DQ,Lukáš Kamenský,27,Czechia,M_OCR_WPC,99.8,100,SBD,Wraps,M,180,190,-200,,190,-130,-130,-130,,,,,,,,
1,Andrey Aivazov,28,Russia,M_OCR_WPC,108.7,110,SBD,Wraps,M,300,320,-332.5,,320,200,207.5,-210,,207.5,320,345,-362.5,,345,872.5
2,Sergey Starodubskiy,33,Russia,M_OCR_WPC,109.1,110,SBD,Wraps,M,300,312.5,-322.5,,312.5,220,-232.5,-232.5,,220,300,-320,,,300,832.5
3,Petr Folprecht,25,Czechia,M_OCR_WPC,106.5,110,SBD,Wraps,M,250,262.5,270,,270,150,-160,160,,160,-290,300,315,-345.5,315,745
4,Aleksandar Kyurchev Nikolov,32,Bulgaria,M_OCR_WPC,102.3,110,SBD,Wraps,M,250,-262.5,,,250,190,202.5,,,202.5,260,-280,282.5,,282.5,735
1,Sergiy Karnaukhov,32,Ukraine,M_OCR_WPC,124.8,125,SBD,Wraps,M,-320,320,-361,,320,200,-210,-210,,200,290,300,320,,320,840
2,Yuriy Kovalenko,34,Ukraine,M_OCR_WPC,111.5,125,SBD,Wraps,M,270,280,-290,,280,200,210,-215,,210,250,270,-280,,270,760
3,Tino Czeranowski,40,Germany,M_OCR_WPC,123.8,125,SBD,Wraps,M,270,285,-300,,285,160,180,-190,,180,270,-290,-290,,270,735
DQ,František Tesařík,37,Czechia,M_OCR_WPC,115.1,125,SBD,Wraps,M,-250,-250,-250,,,,,,,,,,,,,
1,Gregor Jankovič,34,Slovenia,M_OCR_WPC,137.4,140,SBD,Wraps,M,-280,290,310,-321,310,210,-225,225,,225,230,-255,260,,260,795
2,Jan Vojtěchovský,39,Czechia,M_OCR_WPC,126.1,140,SBD,Wraps,M,260,-270,270,,270,160,170,-180,,170,270,290,-300,,290,730
3,Adam Švehla,30,Czechia,M_OCR_WPC,129.6,140,SBD,Wraps,M,205,215,-222.5,,215,190,200,-205,,200,250,270,-285,,270,685
1,Gennady Bogdanov,42,Russia,M_MCR_1_WPC,82.5,82.5,SBD,Wraps,M,190,210,-222.5,,210,130,150,170,,170,100,,,,100,480
1,Vladimir Minin,43,Russia,M_MCR_1_WPC,99.9,100,SBD,Wraps,M,-280,280,290,,290,150,160,167.5,,167.5,280,290,-300,,290,747.5
1,Elmar Wasmer,44,Switzerland,M_MCR_1_WPC,112,125,SBD,Wraps,M,230,240,-250,,240,150,160,-167.5,,160,-240,-250,250,,250,650
1,Vladimir Pryazhentsev,45,Russia,M_MCR_2_WPC,73.5,75,SBD,Wraps,M,175,180,185,,185,110,-122.5,122.5,,122.5,190,213,225,227.5,225,532.5
1,Sergey Trukhnin,45,Russia,M_MCR_2_WPC,75.5,82.5,SBD,Wraps,M,120,140,160,162.5,160,120,130,135,,135,160,180,200,,200,495
1,Vladimír Šlesingr,45,Czechia,M_MCR_2_WPC,88.6,90,SBD,Wraps,M,130,-150,-150,,130,90,100,110,,110,-200,200,220,,220,460
1,Aleš Pěnčík,46,Czechia,M_MCR_2_WPC,99.7,100,SBD,Wraps,M,-205,205,-215,,205,110,120,130,140,130,195,215,240,-260,240,575
2,Viacheslav Frank,49,Russia,M_MCR_2_WPC,98.8,100,SBD,Wraps,M,160,-170,170,,170,127.5,133,136,,136,190,205,215,,215,521
1,Yuriy Usoltsev,46,Russia,M_MCR_2_WPC,109.8,110,SBD,Wraps,M,-190,190,200,,200,160,170,180,,180,200,220,230,,230,610
1,Evgeny Stuchkov,50,Russia,M_MCR_3_WPC,101.3,110,SBD,Wraps,M,100,110,-120,,110,142.5,,,,142.5,100,120,140,,140,392.5
1,Dainis Polis,51,Latvia,M_MCR_3_WPC,116.2,125,SBD,Wraps,M,-190,190,200,,200,-150,155,160,170,160,200,220,230,240,230,590
2,Alexander Burlakov,52,Russia,M_MCR_3_WPC,124.9,125,SBD,Wraps,M,185,195,200,,200,150,157.5,-162.5,,157.5,190,200,220.5,,220.5,578
1,Vladimir Sviderskiy,60,Russia,M_MCR_5_WPC,60.2,67.5,SBD,Wraps,M,110,115,-120,,115,77.5,-82.5,82.5,,82.5,115,125,132.5,135.5,132.5,330
1,Alexander Ponedelin,61,Russia,M_MCR_5_WPC,74,75,SBD,Wraps,M,180,190,-205,,190,80,-87.5,-87.5,,80,192.5,205,212.5,,212.5,482.5
1,Valentin Savelyev,60,Russia,M_MCR_5_WPC,96.9,100,SBD,Wraps,M,-140,140,160,,160,110,-130,130,,130,180,200,220,,220,510
1,Yuriy Chepets,68,Russia,M_MCR_6_WPC,81.3,82.5,SBD,Wraps,M,200,210,215,217.5,215,140,151,-155,,151,190,200,205,,205,571
DQ,Ernest Ruzin,72,Israel,M_MCR_7_WPC,64,67.5,SBD,Wraps,M,-120,-120,-120,,,,,,,,,,,,,
1,Ulrich Mielich,71,Germany,M_MCR_7_WPC,75.2,82.5,SBD,Wraps,M,75,82.5,90,,90,60,65,-67.5,,65,110,122.5,130,,130,285
5,Pavel Laptenok,58,Russia,M_OCR_WPC,109.7,110,SBD,Wraps,M,201,210,-215,,210,145,152.5,157.5,,157.5,215,225,232.5,,232.5,600
1,Pavel Laptenok,58,Russia,M_MCR_4_WPC,109.7,110,SBD,Wraps,M,201,210,-215,,210,145,152.5,157.5,,157.5,215,225,232.5,,232.5,600
6,Valeriy Bystrov,70,Russia,M_OR_WPC,96.4,100,SBD,Raw,M,150,-165,170,,170,100,-110,110,,110,180,190,192.5,,192.5,472.5
1,Valeriy Bystrov,70,Russia,M_MR_7_WPC,96.4,100,SBD,Raw,M,150,-165,170,,170,100,-110,110,,110,180,190,192.5,,192.5,472.5
DQ,Violetta Varga,18,Hungary,F_TEM_3_WPC,65.8,67.5,SBD,Multi-ply,F,-200,-200,-200,,,,,,,,,,,,,
1,Yulia Medvedeva,31,Russia,F_OEM_WPC,74.5,75,SBD,Multi-ply,F,240,260,,,260,170,-183.5,-183.5,,170,210,-230,-230,,210,640
1,Chantal Rostagnat,44,France,F_MEM_1_WPC,68.2,75,SBD,Multi-ply,F,120,130,-135,,130,-65,65,-72.5,,65,130,142.5,-150,,142.5,337.5
1,Tomass Rihards Čaps,10,Latvia,M_YEM_WPC,61.3,67.5,SBD,Multi-ply,M,-90,90,95,,95,40,-45,50,,50,90,95,100,,100,245
1,Aigars Vilners,17,Latvia,M_TEM_2_WPC,89.1,90,SBD,Multi-ply,M,200,-220,-230,,200,100,140,145,,145,210,230,250,,250,595
1,Evgeniy Bulakhtin,18,Russia,M_TEM_3_WPC,74.6,75,SBD,Multi-ply,M,220,230,245,,245,140,147.5,152.5,,152.5,240,255,-267.5,,255,652.5
1,Kristaps Locis,18,Latvia,M_TEM_3_WPC,93.7,100,SBD,Multi-ply,M,160,180,200,,200,130,135,140,,140,-200,200,-220,,200,540
1,Aleksandar Pelovski Lyubomirov,19,Bulgaria,M_TEM_3_WPC,109.3,110,SBD,Multi-ply,M,-290,290,310,,310,160,170,-180,,170,270,300,-313,,300,780
1,Arten Konyk,21,Ukraine,M_JEM_WPC,74.9,75,SBD,Multi-ply,M,330,-360,-360,,330,-215,215,225,,225,250,275,-290,,275,830
2,Joao Carlos Henques,23,Portugal,M_JEM_WPC,74.8,75,SBD,Multi-ply,M,-180,180,-230,,180,130,140,-145,,140,170,200,-230,,200,520
1,Hafiz Verdiyev,21,Slovakia,M_JEM_WPC,89.8,90,SBD,Multi-ply,M,290,310,-322.5,,310,200,212.5,-220,,212.5,290,310,-317.5,,310,832.5
2,Ilya Plamenov Petrov,21,Bulgaria,M_JEM_WPC,89.3,90,SBD,Multi-ply,M,260,-285,285,,285,185,-200,-200,,185,240,250,265,,265,735
3,Arnis Kvietkausks,22,Latvia,M_JEM_WPC,89.8,90,SBD,Multi-ply,M,250,260,-270,,260,175,-180,,,175,220,230,,,230,665
1,Eugeny Sokolov,23,Russia,M_JEM_WPC,96.4,100,SBD,Multi-ply,M,-270,270,300,,300,-210,210,230,,230,270,300,-320,,300,830
2,Jiří Tkadlčík,21,Czechia,M_JEM_WPC,95.5,100,SBD,Multi-ply,M,260,280,-295,,280,165,172.5,180,,180,290,315,,,315,775
1,Oskari Lehtinen,21,Finland,M_JEM_WPC,106.6,110,SBD,Multi-ply,M,-375,375,-390,,375,-255,255,-265,,255,280,-300,300,,300,930
2,Denis Rodyakin,23,Russia,M_JEM_WPC,101.8,110,SBD,Multi-ply,M,370,385,-400,,385,-210,210,-220,,210,300,315,-335,,315,910
3,Teemu Haverinen,20,Finland,M_JEM_WPC,109.5,110,SBD,Multi-ply,M,340,-360,-360,,340,250,-260,-260,,250,300,-307.5,-322.5,,300,890
4,Arsen Doga,23,Ukraine,M_JEM_WPC,106.5,110,SBD,Multi-ply,M,-315,325,,,325,190,200,-210,,200,270,285,,,285,810
1,Gerard McNamara #1,47,Ireland,M_OEM_WPC,67.5,67.5,SBD,Multi-ply,M,310,330,-340,,330,160,170,180,-190,180,220,230,240,,240,750
2,Gordon Wood,38,UK,M_OEM_WPC,67.3,67.5,SBD,Multi-ply,M,-180,-180,180,,180,-100,100,-130,,100,140,180,,,180,460
1,Arten Konyk,21,Ukraine,M_OEM_WPC,74.9,75,SBD,Multi-ply,M,330,-360,-360,,330,-215,215,225,,225,250,275,-290,,275,830
2,Zaur Gusenov,24,Russia,M_OEM_WPC,74.7,75,SBD,Multi-ply,M,250,270,-280,,270,170,180,185,,185,210,-230,-245,,210,665
DQ,Paulo Vilas-Boas,25,Portugal,M_OEM_WPC,74.8,75,SBD,Multi-ply,M,-250,-250,-250,,,,,,,,,,,,,
DQ,Ilya Kokorev,38,Russia,M_OEM_WPC,75,75,SBD,Multi-ply,M,310,325,-337.5,,325,-230,-230,-230,,,,,,,,
1,Andriy Dyatlov,26,Ukraine,M_OEM_WPC,80.5,82.5,SBD,Multi-ply,M,270,-290,290,,290,190,205,215,,215,230,255,270,,270,775
2,Dmitro Pavlenko,32,Ukraine,M_OEM_WPC,82.4,82.5,SBD,Multi-ply,M,220,240,255,,255,150,165,-180,,165,240,270,-290,,270,690
3,Carlos Rocha Hunberto,39,Portugal,M_OEM_WPC,82.5,82.5,SBD,Multi-ply,M,-180,200,-220,,200,140,-160,-160,,140,180,200,220,,220,560
1,Maxim Piskunov,28,Russia,M_OEM_WPC,89.7,90,SBD,Multi-ply,M,-350,350,380,,380,220,227.5,235,,235,270,290,-305,,290,905
2,Eric Athias,40,France,M_OEM_WPC,83.7,90,SBD,Multi-ply,M,-300,300,-340,,300,-160,160,-200,,160,275,-305,-335,,275,735
DQ,Steve Loncke,35,Belgium,M_OEM_WPC,89.3,90,SBD,Multi-ply,M,-360,370,-385,,370,-250,-250,-250,,,,,,,,
1,Mykhailo Zhelyazkov,30,Ukraine,M_OEM_WPC,97.1,100,SBD,Multi-ply,M,-330,330,340,,340,220,230,-235,,230,290,300,310,,310,880
2,Eduard Maximov,30,Russia,M_OEM_WPC,99.8,100,SBD,Multi-ply,M,310,-325,-325,,310,240,250,-260,,250,270,285,295,,295,855
3,Yuriy Ustinov,36,Russia,M_OEM_WPC,97,100,SBD,Multi-ply,M,290,-310,-320,,290,190,202.5,-207.5,,202.5,260,270,280,,280,772.5
4,Martin Hurdálek,32,Czechia,M_OEM_WPC,96.5,100,SBD,Multi-ply,M,-280,280,300,,300,-220,220,-230,,220,210,230,-245,,230,750
5,Kalle Hyötyläinen,24,Finland,M_OEM_WPC,98.8,100,SBD,Multi-ply,M,-270,-270,270,,270,170,185,-200,,185,200,225,-245,,225,680
1,Sergey Starodubskiy,33,Russia,M_OEM_WPC,110,110,SBD,Multi-ply,M,350,375,,,375,290,-312.5,-312.5,,290,305,320,-335,,320,985
2,Ivars Cīrulis,31,Latvia,M_OEM_WPC,106,110,SBD,Multi-ply,M,-370,-370,377.5,,377.5,-260,260,-280,,260,320,332.5,-345,,332.5,970
3,Aleksandar Kyurchev Nikolov,32,Bulgaria,M_OEM_WPC,102,110,SBD,Multi-ply,M,350,-370,-370,,350,265,272.5,280,,280,300,320,-335,,320,950
4,Martin Kobliha,33,Czechia,M_OEM_WPC,105.4,110,SBD,Multi-ply,M,250,260,-270,,260,152,162.5,-172.5,,162.5,255,-265,-265,,255,677.5
5,Miroslav Klus,27,Czechia,M_OEM_WPC,101.5,110,SBD,Multi-ply,M,-200,200,220,,220,120,140,,,140,-250,250,265,,265,625
DQ,Ruslan Ovechko,33,Ukraine,M_OEM_WPC,106.7,110,SBD,Multi-ply,M,-360,-360,-360,,,,,,,,,,,,,
DQ,Alexander Kokovin,36,Russia,M_OEM_WPC,109.8,110,SBD,Multi-ply,M,-275,-275,-275,,,,,,,,,,,,,
DQ,Ricardo Jorge Pereira,38,Portugal,M_OEM_WPC,103.1,110,SBD,Multi-ply,M,250,-280,,,250,150,160,-170,,160,-250,,,,,
DQ,Petteri Hosio Henrik,32,Finland,M_OEM_WPC,123.7,125,SBD,Multi-ply,M,-350,-360,-360,,,,,,,,,,,,,
DQ,Radovan Kaděra,34,Czechia,M_OEM_WPC,121.8,125,SBD,Multi-ply,M,-310,-310,-310,,,,,,,,,,,,,
DQ,Alexey Milovanov,34,Russia,M_OEM_WPC,130.1,140,SBD,Multi-ply,M,-345,,,,,,,,,,,,,,,
1,Luis Batista,37,Portugal,M_OEM_WPC,126,140,SBD,Multi-ply,M,-320,-320,320,,320,170,190,200,,200,300,320,-340,,320,840
1,Martins Carlos,42,Portugal,M_MEM_1_WPC,89.6,90,SBD,Multi-ply,M,260,-290,300,,300,150,165,-172.5,,165,265,285,-292.5,,285,750
1,José Teixeira,40,Portugal,M_MEM_1_WPC,96.3,100,SBD,Multi-ply,M,285,302.5,-310,,302.5,155,165,172.5,,172.5,-290,-290,290,,290,765
1,Oleg Kholodov,49,Russia,M_MEM_2_WPC,97.7,100,SBD,Multi-ply,M,190,210,,,210,160,170,,,170,190,210,,,210,590
DQ,Libor Bock,47,Czechia,M_MEM_2_WPC,101.5,110,SBD,Multi-ply,M,220,240,-252.5,,240,-215,-215,-215,,,,,,,,
1,Didier Michelon,47,France,M_MEM_2_WPC,113.6,125,SBD,Multi-ply,M,-240,240,-275,,240,130,-210,,,130,205,235,245,,245,615
1,Joachim Flett,53,Germany,M_MEM_3_WPC,99.8,100,SBD,Multi-ply,M,240,250,260,,260,-242.5,242.5,-250,,242.5,220,240,250,,250,752.5
1,Jean-Pierre Chamburland,59,France,M_MEM_4_WPC,82.1,82.5,SBD,Multi-ply,M,250,265,275,,275,140,150,-157.5,,150,-200,210,-215,,210,635
1,Stanislav Hoza,55,Czechia,M_MEM_4_WPC,87.7,90,SBD,Multi-ply,M,-280,290,-300,,290,170,180,185,,185,220,230,,,230,705
DQ,Risto Kolehmainen,56,Finland,M_MEM_4_WPC,98.1,100,SBD,Multi-ply,M,-250,260,-270,,260,-170,-170,-170,,,,,,,,
1,Pavel Laptenok,58,Russia,M_MEM_4_WPC,109,110,SBD,Multi-ply,M,220,-230,232.5,,232.5,165,175,-185,,175,-220,220,242.5,,242.5,650
2,Libor Hurdálek,56,Czechia,M_MEM_4_WPC,100.2,110,SBD,Multi-ply,M,-230,230,250,,250,140,160,-170,,160,210,220,237.5,,237.5,647.5
1,Alexander Ponedelin,61,Russia,M_MEM_5_WPC,75,75,SBD,Multi-ply,M,-230,-230,230,,230,85,90,95,,95,220,-235,235,,235,560
1,Evgeniy Khudoleev,64,Russia,M_MEM_5_WPC,88.3,90,SBD,Multi-ply,M,200,220,230,,230,160,170,-180,,170,170,,,,170,570
1,Ernest Ruzin,72,Israel,M_MEM_7_WPC,64.9,67.5,SBD,Multi-ply,M,100,-120,120,,120,70,80,85,,85,-120,120,140,,140,345
1,Katalin Mezei,32,Hungary,F_OR_WPC,45.9,48,B,Raw,F,,,,,,50,52.5,-55,,52.5,,,,,,52.5
1,Andrea Kovács,35,Hungary,F_OR_WPC,50.2,52,B,Raw,F,,,,,,50,-52.5,-52.5,,50,,,,,,50
1,Gabriela Stacher,31,Switzerland,F_OR_WPC,55.6,56,B,Raw,F,,,,,,70,-75,75,,75,,,,,,75
2,Olena Koroeva,35,Ukraine,F_OR_WPC,55.1,56,B,Raw,F,,,,,,50,55,-57.5,,55,,,,,,55
1,Lyudmyla Bobchenko,31,Ukraine,F_OR_WPC,59.5,60,B,Raw,F,,,,,,85,95,-100,,95,,,,,,95
1,Christel Schubert,66,Germany,F_MR_6_WPC,59.3,60,B,Raw,F,,,,,,35.5,-37.5,-37.5,,35.5,,,,,,35.5
1,Tetyana Balashova,35,Ukraine,F_OR_WPC,67.1,67.5,B,Raw,F,,,,,,42.5,47.5,-52.5,,47.5,,,,,,47.5
1,Yulia Medvedeva,31,Russia,F_OR_WPC,74.6,75,B,Raw,F,,,,,,130,-135.5,-135.5,,130,,,,,,130
2,Anna Kurkurina,44,Ukraine,F_OR_WPC,70.6,75,B,Raw,F,,,,,,117.5,-125,-125,,117.5,,,,,,117.5
1,Anna Turaeva,32,Russia,F_OR_WPC,81.9,82.5,B,Raw,F,,,,,,115,122.5,132.5,133,132.5,,,,,,132.5
2,Svetlana Sinacheva,44,Russia,F_OR_WPC,75.4,82.5,B,Raw,F,,,,,,97.5,105,107.5,,107.5,,,,,,107.5
1,Svetlana Odintsova,44,Russia,F_MR_1_WPC,76.1,82.5,B,Raw,F,,,,,,92.5,97.5,102.5,,102.5,,,,,,102.5
1,Sandra Bileiše,47,Latvia,F_MR_2_WPC,75,75,B,Raw,F,,,,,,85,90,-95,,90,,,,,,90
1,Anna Kurkurina,44,Ukraine,F_MR_1_WPC,70.6,75,B,Raw,F,,,,,,117.5,-125,-125,,117.5,,,,,,117.5
1,Svetlana Sinacheva,44,Russia,F_MR_1_WPC,75.4,82.5,B,Raw,F,,,,,,97.5,105,107.5,,107.5,,,,,,107.5
1,Viktor Bobchenko,8,Ukraine,M_YR_WPC,43.2,52,B,Raw,M,,,,,,25,27.5,-30,,27.5,,,,,,27.5
1,Elias Hiissa,14,Finland,M_TR_1_WPC,63.2,67.5,B,Raw,M,,,,,,83,87.5,-90,,87.5,,,,,,87.5
1,Vladimir Graivoronskiy,15,Russia,M_TR_1_WPC,79.5,82.5,B,Raw,M,,,,,,75,80,-85,,80,,,,,,80
1,Dominik Kupiec,19,Poland,M_TR_3_WPC,57.8,60,B,Raw,M,,,,,,80,87.5,-95,,87.5,,,,,,87.5
1,Artis Šteins,19,Latvia,M_TR_3_WPC,74.7,75,B,Raw,M,,,,,,160,-170,-170,,160,,,,,,160
2,Ondřej Vacek,19,Czechia,M_TR_3_WPC,70.7,75,B,Raw,M,,,,,,-95,95,-102.5,,95,,,,,,95
1,Aleksandr Sorochinskiy,23,Russia,M_JR_WPC,59.1,60,B,Raw,M,,,,,,65,,,,65,,,,,,65
1,Andrei Yadrintcev,23,Russia,M_JR_WPC,69.5,75,B,Raw,M,,,,,,110,115,120,,120,,,,,,120
1,Mela Juuso,20,Finland,M_JR_WPC,81.3,82.5,B,Raw,M,,,,,,150,-160,-160,,150,,,,,,150
1,Kristaps Juškevics,23,Latvia,M_JR_WPC,86.4,90,B,Raw,M,,,,,,175,180,182.5,,182.5,,,,,,182.5
2,Volodymyr Zhylin,23,Ukraine,M_JR_WPC,90,90,B,Raw,M,,,,,,170,-180,-185,,170,,,,,,170
1,Jevgenijs Artemjens,23,Latvia,M_JR_WPC,97.6,100,B,Raw,M,,,,,,205,210,215.5,,215.5,,,,,,215.5
2,Julien Garardin,23,Switzerland,M_JR_WPC,96.9,100,B,Raw,M,,,,,,190,205,-210,,205,,,,,,205
1,Lajos Sallai,21,Hungary,M_JR_WPC,102.6,110,B,Raw,M,,,,,,170,180,-185,,180,,,,,,180
1,Alijan Eshchanov,36,Russia,M_OR_WPC,54.5,56,B,Raw,M,,,,,,70,-80,-80,,70,,,,,,70
1,Krisztián Kaiser,34,Hungary,M_OR_WPC,67.3,67.5,B,Raw,M,,,,,,110,-117.5,120,,120,,,,,,120
1,Vincent Eldin,39,France,M_OR_WPC,73.8,75,B,Raw,M,,,,,,125,135,-137.5,,135,,,,,,135
2,Emi Gregorčič,35,Slovenia,M_OR_WPC,73.2,75,B,Raw,M,,,,,,120,130,-135,,130,,,,,,130
3,David Kokojan,25,Czechia,M_OR_WPC,74.2,75,B,Raw,M,,,,,,-125,125,-137.5,,125,,,,,,125
4,Pavel Hluchý,30,Czechia,M_OR_WPC,72.5,75,B,Raw,M,,,,,,90,105,-110,,105,,,,,,105
1,István Juhász,30,Hungary,M_OR_WPC,82.5,82.5,B,Raw,M,,,,,,-205,-205,205,,205,,,,,,205
2,Dmitro Pavlenko,32,Ukraine,M_OR_WPC,82.3,82.5,B,Raw,M,,,,,,130,145,-155,,145,,,,,,145
DQ,Maxim Kutuzov,30,Germany,M_OR_WPC,82.4,82.5,B,Raw,M,,,,,,-170,-170,-170,,,,,,,,
1,Florindo Figueiredo Pinheiro,37,Portugal,M_OR_WPC,89.1,90,B,Raw,M,,,,,,220,228,232,,232,,,,,,232
2,Allan Jokinen,30,Finland,M_OR_WPC,90,90,B,Raw,M,,,,,,200,-215,217.5,-232.5,217.5,,,,,,217.5
3,Krzysztof Kmiecik,29,Poland,M_OR_WPC,89.9,90,B,Raw,M,,,,,,215,-222.5,-222.5,,215,,,,,,215
4,Viesturs Eidemanis,31,Latvia,M_OR_WPC,89.8,90,B,Raw,M,,,,,,190,197.5,-200,,197.5,,,,,,197.5
5,Christoph Scheel,26,Germany,M_OR_WPC,89.6,90,B,Raw,M,,,,,,185,-195,-197.5,,185,,,,,,185
6,Vladimir Konchakov,38,Russia,M_OR_WPC,88.3,90,B,Raw,M,,,,,,170,180,-185,,180,,,,,,180
1,Oleg Bazylevich,29,Ukraine,M_OR_WPC,95.8,100,B,Raw,M,,,,,,230,240,253,,253,,,,,,253
2,Andrzej Kocyła,30,Poland,M_OR_WPC,99.7,100,B,Raw,M,,,,,,210,-217.5,217.5,,217.5,,,,,,217.5
3,Oleg Osipov,37,Russia,M_OR_WPC,98.6,100,B,Raw,M,,,,,,-195,195,-205,,195,,,,,,195
4,Vladimir Schukin,31,Russia,M_OR_WPC,98.1,100,B,Raw,M,,,,,,180,-195,-195,,180,,,,,,180
DQ,Alexey Zyuzin,29,Russia,M_OR_WPC,95.4,100,B,Raw,M,,,,,,-225,-225,,,,,,,,,
1,Oleg Saydentsal,36,Russia,M_OR_WPC,109.8,110,B,Raw,M,,,,,,242.5,247.5,-251,,247.5,,,,,,247.5
2,Oliver Beck,36,Germany,M_OR_WPC,110,110,B,Raw,M,,,,,,230,235,-237.5,,235,,,,,,235
3,Mārtiņš Apškalns,30,Latvia,M_OR_WPC,109.9,110,B,Raw,M,,,,,,235,-240,-240,,235,,,,,,235
4,Anton Begalko,24,Ukraine,M_OR_WPC,105.3,110,B,Raw,M,,,,,,230,-240,-240,,230,,,,,,230
5,Dmitry Tenetko,30,Slovakia,M_OR_WPC,109.9,110,B,Raw,M,,,,,,225,-237.5,-237.5,,225,,,,,,225
6,Sergey Didovyk,33,Ukraine,M_OR_WPC,101.3,110,B,Raw,M,,,,,,210,-222.5,-230,,210,,,,,,210
7,Igors Pirins,30,Latvia,M_OR_WPC,104.1,110,B,Raw,M,,,,,,180,-185,185,,185,,,,,,185
8,Roman Samko,27,Czechia,M_OR_WPC,107.1,110,B,Raw,M,,,,,,140,-150,150,,150,,,,,,150
9,Richard Samko,28,Czechia,M_OR_WPC,107.1,110,B,Raw,M,,,,,,-140,-140,140,,140,,,,,,140
10,Valeriy Bystrov,70,Russia,M_OR_WPC,96.3,100,B,Raw,M,,,,,,100,110,-115,,110,,,,,,110
1,Norbert Stranszki,24,Hungary,M_OR_WPC,120,125,B,Raw,M,,,,,,220,230,235,,235,,,,,,235
2,Peter Diethalm,37,Switzerland,M_OR_WPC,120.6,125,B,Raw,M,,,,,,215,230,-232.5,,230,,,,,,230
3,Mikloš Mihajlović,35,Serbia,M_OR_WPC,115.7,125,B,Raw,M,,,,,,205,215,,,215,,,,,,215
4,Alexandr Lebedev,30,Russia,M_OR_WPC,120.1,125,B,Raw,M,,,,,,207.5,-217.5,-217.5,,207.5,,,,,,207.5
5,Alexander Kovalenko,26,Russia,M_OR_WPC,123.5,125,B,Raw,M,,,,,,175,182.5,190,,190,,,,,,190
1,László Mészáros,42,Hungary,M_OR_WPC,129.1,140,B,Raw,M,,,,,,280,290,-305,,290,,,,,,290
2,Oleksandr Gonchar,33,Ukraine,M_OR_WPC,138.9,140,B,Raw,M,,,,,,240,-250,250,,250,,,,,,250
1,Roman Polyakov,35,Russia,M_OR_WPC,160.5,140+,B,Raw,M,,,,,,260,270,-280,,270,,,,,,270
2,Uldis Lūks,35,Latvia,M_OR_WPC,146.9,140+,B,Raw,M,,,,,,230,-235,,,230,,,,,,230
3,János Szabó Ozor,38,Hungary,M_OR_WPC,161.5,140+,B,Raw,M,,,,,,210,215,220,,220,,,,,,220
1,Konstantsin Dremiankou,44,Belarus,M_MR_1_WPC,82.4,82.5,B,Raw,M,,,,,,150,160,-165,,160,,,,,,160
2,Tám Nguyen,40,Slovakia,M_MR_1_WPC,82,82.5,B,Raw,M,,,,,,130,140,-150,,140,,,,,,140
1,Andreas Freudenberg,41,Germany,M_MR_1_WPC,89.3,90,B,Raw,M,,,,,,150,155,-157.5,,155,,,,,,155
1,Yuriy Shmelev,42,Russia,M_MR_1_WPC,99.2,100,B,Raw,M,,,,,,160,165,170,,170,,,,,,170
1,Uģis Vācietis,42,Latvia,M_MR_1_WPC,109.1,110,B,Raw,M,,,,,,200,210,-215,,210,,,,,,210
2,Andriy Gimbarov,44,Ukraine,M_MR_1_WPC,105.7,110,B,Raw,M,,,,,,150,160,-170,,160,,,,,,160
1,Sergey Samoylenko,41,Russia,M_MR_1_WPC,112.9,125,B,Raw,M,,,,,,150,160,165,,165,,,,,,165
1,Andrups Edmunds,41,Latvia,M_MR_1_WPC,131.4,140,B,Raw,M,,,,,,205,215,-227.5,,215,,,,,,215
1,Pedro Claro,45,Portugal,M_MR_2_WPC,74.5,75,B,Raw,M,,,,,,110,-120.5,-120.5,,110,,,,,,110
1,Sergey Trukhnin,45,Russia,M_MR_2_WPC,75.6,82.5,B,Raw,M,,,,,,120,130,-140,,130,,,,,,130
1,Yuriy Usoltsev,46,Russia,M_MR_2_WPC,109.4,110,B,Raw,M,,,,,,160,175,180,,180,,,,,,180
2,Jaromír Mizera,45,Czechia,M_MR_2_WPC,102.6,110,B,Raw,M,,,,,,-160,-170,170,,170,,,,,,170
3,Libor Bažant,46,Czechia,M_MR_2_WPC,110,110,B,Raw,M,,,,,,150,160,-162.5,,160,,,,,,160
1,Aldis Eglītis,49,Latvia,M_MR_2_WPC,81.1,82.5,B,Raw,M,,,,,,-110,110,115,,115,,,,,,115
1,Alexander Petrov,50,Russia,M_MR_3_WPC,89.8,90,B,Raw,M,,,,,,170,180,190,,190,,,,,,190
2,Bernd Bucher,53,Germany,M_MR_3_WPC,90,90,B,Raw,M,,,,,,120,125,130,,130,,,,,,130
1,Valeriy Akentyev,53,Russia,M_MR_3_WPC,97.2,100,B,Raw,M,,,,,,145,155,160,,160,,,,,,160
1,Evgehy Stuchkov,50,Russia,M_MR_3_WPC,102.4,110,B,Raw,M,,,,,,145,155,162.5,,162.5,,,,,,162.5
1,Dieter Berghoff,51,Germany,M_MR_3_WPC,124.4,125,B,Raw,M,,,,,,-175,-180,182.5,,182.5,,,,,,182.5
1,Arsen Kaseyev,56,Ukraine,M_MR_4_WPC,73.4,75,B,Raw,M,,,,,,130,-135,-135,,130,,,,,,130
1,Evgeny Basov,56,Russia,M_MR_4_WPC,86.1,90,B,Raw,M,,,,,,115,125,130,,130,,,,,,130
1,Pavel Laptenok,58,Russia,M_MR_4_WPC,108.9,110,B,Raw,M,,,,,,145,155,160,,160,,,,,,160
1,Miroslav Sýkora,56,Czechia,M_MR_4_WPC,117,125,B,Raw,M,,,,,,140,-150,150,,150,,,,,,150
1,Vladimir Sviderskiy,60,Russia,M_MR_5_WPC,60.4,67.5,B,Raw,M,,,,,,75,80,-85,,80,,,,,,80
1,Axel Gersdorf,60,Germany,M_MR_5_WPC,98.6,100,B,Raw,M,,,,,,180,190,-195,,190,,,,,,190
2,Pavel Sojka,64,Czechia,M_MR_5_WPC,95.5,100,B,Raw,M,,,,,,85,95,,,95,,,,,,95
1,Jozef Péter,60,Slovakia,M_MR_5_WPC,126.2,140,B,Raw,M,,,,,,180,-185,-185,,180,,,,,,180
1,Hans Klein,69,Germany,M_MR_6_WPC,67.1,67.5,B,Raw,M,,,,,,-110,110,115,,115,,,,,,115
1,Yuriy Chepets,68,Russia,M_MR_6_WPC,80.9,82.5,B,Raw,M,,,,,,140,147.5,150,150.5,150,,,,,,150
1,Valērijs Petrovs,67,Latvia,M_MR_6_WPC,88.6,90,B,Raw,M,,,,,,130,137.5,-140,,137.5,,,,,,137.5
1,Ernest Ruzin,72,Israel,M_MR_7_WPC,63.5,67.5,B,Raw,M,,,,,,75,85,-90,,85,,,,,,85
1,Evgeny Vyborov,71,Russia,M_MR_7_WPC,72.8,75,B,Raw,M,,,,,,70,-80,90,,90,,,,,,90
1,Roland Schubert,71,Germany,M_MR_7_WPC,88.9,90,B,Raw,M,,,,,,140,-147.5,-150,,140,,,,,,140
1,Květoslav Štora,71,Czechia,M_MR_7_WPC,92.5,100,B,Raw,M,,,,,,105,110,-112.5,,110,,,,,,110
2,Valeriy Bystrov,70,Russia,M_MR_7_WPC,96.3,100,B,Raw,M,,,,,,100,110,-115,,110,,,,,,110
1,Peter Schwarz,71,Germany,M_MR_7_WPC,117.9,125,B,Raw,M,,,,,,90,-100,-135,,90,,,,,,90
1,Marya Berezenko,22,Russia,F_JEM_WPC,59.9,60,B,Multi-ply,F,,,,,,85,90,-95,,90,,,,,,90
1,Chantal Rostagnat,44,France,F_OEM_WPC,67.4,67.5,B,Multi-ply,F,,,,,,65,-72.5,-72.5,,65,,,,,,65
1,Yulia Medvedeva,31,Russia,F_OEM_WPC,74.6,75,B,Multi-ply,F,,,,,,170,180,183.5,-190,183.5,,,,,,183.5
DQ,Zsuzsa Tarjányi,32,Hungary,F_OEM_WPC,72,75,B,Multi-ply,F,,,,,,-110,-110,-110,,,,,,,,
1,Viktoriya Sheludko,37,Russia,F_OES_WPC,82.2,82.5,B,Single-ply,F,,,,,,180,190,-200,,190,,,,,,190
2,Inna Yudina,33,Ukraine,F_OEM_WPC,77.2,82.5,B,Multi-ply,F,,,,,,80,90,-95,,90,,,,,,90
1,Olena Tymofeyeva,43,Ukraine,F_MEM_1_WPC,63.6,67.5,B,Multi-ply,F,,,,,,65,70,75,,75,,,,,,75
1,Sandra Bileiše,47,Latvia,F_MEM_2_WPC,75,75,B,Multi-ply,F,,,,,,100,105,107.5,,107.5,,,,,,107.5
1,Inge Kaule,58,Germany,F_MEM_4_WPC,47.1,48,B,Multi-ply,F,,,,,,50,52.5,-55,,52.5,,,,,,52.5
1,Miroslav Čaba,17,Slovakia,M_TEM_2_WPC,81.6,82.5,B,Multi-ply,M,,,,,,160,180,-190,,180,,,,,,180
1,Oleksiy Gornyy,18,Ukraine,M_TEM_3_WPC,59.9,60,B,Multi-ply,M,,,,,,-120,120,-130,,120,,,,,,120
1,Evgeniy Bulakhtin,19,Russia,M_TEM_3_WPC,74.2,75,B,Multi-ply,M,,,,,,140,150,155,-160,155,,,,,,155
1,Tomáš Kríž,18,Slovakia,M_TEM_3_WPC,78.8,82.5,B,Multi-ply,M,,,,,,165,175,-182.5,,175,,,,,,175
1,Dávid Mészáros,18,Hungary,M_TEM_3_WPC,88.5,90,B,Multi-ply,M,,,,,,220.5,-230,230,,230,,,,,,230
1,Lukáš Michalko,18,Slovakia,M_TEM_3_WPC,97.7,100,B,Multi-ply,M,,,,,,185,195,205,,205,,,,,,205
1,Aleksandar Pelovski Lyubomirov,19,Bulgaria,M_TEM_3_WPC,108.7,110,B,Multi-ply,M,,,,,,225,235,-242.5,,235,,,,,,235
1,Otto Selin,19,Finland,M_TEM_3_WPC,144.2,140+,B,Multi-ply,M,,,,,,350,365,-400,,365,,,,,,365
1,Regimants Peleckis,19,Latvia,M_TEM_3_WPC,59,60,B,Multi-ply,M,,,,,,-122.5,122.5,125,,125,,,,,,125
1,Joao Carlos Henques,23,Portugal,M_JEM_WPC,75,75,B,Multi-ply,M,,,,,,140,150,-155,,150,,,,,,150
1,Slavomír Tomko,23,Slovakia,M_JEM_WPC,80.6,82.5,B,Multi-ply,M,,,,,,165,-180,-180,,165,,,,,,165
1,Ákos Oláh,22,Hungary,M_JEM_WPC,88.5,90,B,Multi-ply,M,,,,,,240,250,255,,255,,,,,,255
2,Volodymyr Zhylin,23,Ukraine,M_JEM_WPC,89.6,90,B,Multi-ply,M,,,,,,240,-250,-255,,240,,,,,,240
3,José Carlos Batista,22,Portugal,M_JEM_WPC,85.4,90,B,Multi-ply,M,,,,,,-200,200,210,,210,,,,,,210
DQ,Ilya Plamenov Petrov,21,Bulgaria,M_JEM_WPC,89.7,90,B,Multi-ply,M,,,,,,-190,-190,-202.5,,,,,,,,
1,Oleksandr Dorgobuzov,23,Ukraine,M_JEM_WPC,95.2,100,B,Multi-ply,M,,,,,,-250,250,-270,,250,,,,,,250
2,Bruno Ricardo Ruela Alves,22,Portugal,M_JEM_WPC,99.3,100,B,Multi-ply,M,,,,,,195,205,212.5,,212.5,,,,,,212.5
DQ,Máté Szilágyi,20,Hungary,M_JEM_WPC,95.6,100,B,Multi-ply,M,,,,,,-250,-255,-255,,,,,,,,
DQ,Jevgenijs Artenjens,23,Latvia,M_JEM_WPC,97.2,100,B,Multi-ply,M,,,,,,-270,-270,-270,,,,,,,,
1,Arsen Doga,23,Ukraine,M_JEM_WPC,104.6,110,B,Multi-ply,M,,,,,,150,,,,150,,,,,,150
1,Sergiy Boryuk,26,Ukraine,M_OEM_WPC,59.4,60,B,Multi-ply,M,,,,,,150,160,171,,171,,,,,,171
1,Anatoly Nefëdov,48,Russia,M_OEM_WPC,67.5,67.5,B,Multi-ply,M,,,,,,160,170,-175,,170,,,,,,170
2,Sandro Kreller,30,Germany,M_OEM_WPC,67.3,67.5,B,Multi-ply,M,,,,,,157.5,162.5,-167.5,,162.5,,,,,,162.5
1,Vincent Eldin,39,France,M_OEM_WPC,73.9,75,B,Multi-ply,M,,,,,,160,-170,175,,175,,,,,,175
1,Sergiy Naleikin,30,Ukraine,M_OEM_WPC,81.7,82.5,B,Multi-ply,M,,,,,,-270,270,-300,,270,,,,,,270
2,Dmitriy Khovanskiy,25,Russia,M_OEM_WPC,82,82.5,B,Multi-ply,M,,,,,,-240,240,-250,,240,,,,,,240
3,Andriy Dyatlov,26,Ukraine,M_OEM_WPC,81.6,82.5,B,Multi-ply,M,,,,,,200,215,222.5,,222.5,,,,,,222.5
4,Maxim Kutuzov,30,Germany,M_OEM_WPC,82.1,82.5,B,Multi-ply,M,,,,,,200,-220,220,,220,,,,,,220
5,Daniel Bogdan,35,Germany,M_OEM_WPC,81,82.5,B,Multi-ply,M,,,,,,210,-220,-222.5,,210,,,,,,210
6,Carlos Rocha Hunberto,39,Portugal,M_OEM_WPC,82.4,82.5,B,Multi-ply,M,,,,,,140,-160,-160,,140,,,,,,140
DQ,Ilya Kokorev,30,Russia,M_OEM_WPC,77.8,82.5,B,Multi-ply,M,,,,,,-225,-230,-230,,,,,,,,
1,Florindo Figueiredo Pinheiro,37,Portugal,M_OEM_WPC,89.7,90,B,Multi-ply,M,,,,,,260,-267.5,-267.5,,260,,,,,,260
2,Christoph Scheel,26,Germany,M_OEM_WPC,90,90,B,Multi-ply,M,,,,,,220,-230,230,,230,,,,,,230
3,Volodymyr Starchenko,36,Ukraine,M_OEM_WPC,89.3,90,B,Multi-ply,M,,,,,,220,-230,-230,,220,,,,,,220
4,Helvis Gutmanis,29,Latvia,M_OEM_WPC,87.7,90,B,Multi-ply,M,,,,,,150,160,-170,,160,,,,,,160
DQ,Filipe Sousa Goncalo,26,Portugal,M_OEM_WPC,89.4,90,B,Multi-ply,M,,,,,,-225,-225,-225,,,,,,,,
DQ,Denys Borodenko,30,Ukraine,M_OEM_WPC,89.3,90,B,Multi-ply,M,,,,,,-230,-230,-230,,,,,,,,
1,Michał Wilk,29,Poland,M_OEM_WPC,99.5,100,B,Multi-ply,M,,,,,,-295,300,-310,,300,,,,,,300
2,Oleksandr Kucher,25,Ukraine,M_OEM_WPC,97.8,100,B,Multi-ply,M,,,,,,-290,-290,290,,290,,,,,,290
DQ,Bruno Szambelanczyk,31,France,M_OEM_WPC,94.4,100,B,Multi-ply,M,,,,,,-225,-225,-225,,,,,,,,
DQ,Alexandr Prozorov,37,Russia,M_OEM_WPC,99.9,100,B,Multi-ply,M,,,,,,-235,-235,-235,,,,,,,,
DQ,Vladimir Schukin,31,Russia,M_OEM_WPC,97.8,100,B,Multi-ply,M,,,,,,-235,-235,-235,,,,,,,,
DQ,Roman Anpilogov,30,Russia,M_OEM_WPC,99.4,100,B,Multi-ply,M,,,,,,-290,-290,-290,,,,,,,,
DQ,Sergey Didovyk,33,Ukraine,M_OEM_WPC,99.5,100,B,Multi-ply,M,,,,,,-290,-295,-300,,,,,,,,
1,Anton Begalko,24,Ukraine,M_OEM_WPC,104.1,110,B,Multi-ply,M,,,,,,275,285,-325,,285,,,,,,285
2,Aleksandar Kyurchev Nikolov,32,Bulgaria,M_OEM_WPC,102.2,110,B,Multi-ply,M,,,,,,272.5,282.5,-295,,282.5,,,,,,282.5
3,Ruslan Ovechko,33,Ukraine,M_OEM_WPC,107.5,110,B,Multi-ply,M,,,,,,235,-245,-245,,235,,,,,,235
4,Andis Kaspars,35,Latvia,M_OEM_WPC,108.6,110,B,Multi-ply,M,,,,,,165,-225,-225,,165,,,,,,165
DQ,Zoltán Csepregi,36,Hungary,M_OEM_WPC,105,110,B,Multi-ply,M,,,,,,-345,-351,-351,,,,,,,,
DQ,Ylitano Kalle,30,Finland,M_OEM_WPC,108.4,110,B,Multi-ply,M,,,,,,-170,,,,,,,,,,
DQ,Petr Hron,34,Czechia,M_OEM_WPC,101.9,110,B,Multi-ply,M,,,,,,-210,,,,,,,,,,
1,Petteri Hosio Henrik,32,Finland,M_OEM_WPC,124.4,125,B,Multi-ply,M,,,,,,300,310,-320,,310,,,,,,310
2,Daniel Dvořák,35,Czechia,M_OEM_WPC,122.1,125,B,Multi-ply,M,,,,,,290,302.5,-315,,302.5,,,,,,302.5
3,Ivars Ozols,33,Latvia,M_OEM_WPC,111.4,125,B,Multi-ply,M,,,,,,290,300,-312.5,,300,,,,,,300
4,Dmitry Permyakov,36,Russia,M_OEM_WPC,121.5,125,B,Multi-ply,M,,,,,,285,295,-312.5,,295,,,,,,295
5,Alexandr Lebedev,30,Russia,M_OEM_WPC,120.1,125,B,Multi-ply,M,,,,,,-280,280,-292.5,,280,,,,,,280
6,Radovan Kaděra,34,Czechia,M_OEM_WPC,123.4,125,B,Multi-ply,M,,,,,,240,250,-257.5,,250,,,,,,250
1,Andrejs Mūrnieks,30,Latvia,M_OEM_WPC,137.7,140,B,Multi-ply,M,,,,,,-325,-325,325,,325,,,,,,325
2,Jiří Havrda,36,Czechia,M_OEM_WPC,139.7,140,B,Multi-ply,M,,,,,,300,320,-335,,320,,,,,,320
3,Dragan Janosevic,31,Austria,M_OEM_WPC,129.7,140,B,Multi-ply,M,,,,,,240,-250,,,240,,,,,,240
4,Thomas Gabriel,39,Germany,M_OEM_WPC,127.2,140,B,Multi-ply,M,,,,,,-210,210,-220,,210,,,,,,210
1,Otto Selin,19,Finland,M_OEM_WPC,144.2,140+,B,Multi-ply,M,,,,,,350,365,-400,,365,,,,,,365
DQ,Roman Polyakov,35,Russia,M_OEM_WPC,159.4,140+,B,Multi-ply,M,,,,,,-320,-330,-335,,,,,,,,
1,Konstantsin Dremiankou,44,Belarus,M_MEM_1_WPC,82.4,82.5,B,Multi-ply,M,,,,,,190,200,207.5,,207.5,,,,,,207.5
1,Vladimir Omelkov,41,Russia,M_MEM_1_WPC,107.4,110,B,Multi-ply,M,,,,,,240,-255,255,,255,,,,,,255
1,Ferenc Balázs,41,Hungary,M_MEM_1_WPC,113,125,B,Multi-ply,M,,,,,,-280,280,-300,,280,,,,,,280
2,Béla Kling,44,Hungary,M_MEM_1_WPC,113.9,125,B,Multi-ply,M,,,,,,210,-215,-215,,210,,,,,,210
1,Franz Seewald,40,Austria,M_MEM_1_WPC,126.8,140,B,Multi-ply,M,,,,,,-270,-270,270,,270,,,,,,270
1,Libor Bock,47,Czechia,M_MEM_2_WPC,103.4,110,B,Multi-ply,M,,,,,,200,-210,-215,,200,,,,,,200
1,Michel Fauque,52,France,M_MEM_3_WPC,75.4,82.5,B,Multi-ply,M,,,,,,140,-150,-150,,140,,,,,,140
1,Valeriy Akentyev,53,Russia,M_MEM_3_WPC,98.3,100,B,Multi-ply,M,,,,,,210,220,-232.5,,220,,,,,,220
1,Ullrich Vetter,59,Germany,M_MEM_4_WPC,106.9,110,B,Multi-ply,M,,,,,,180,-190,190,,190,,,,,,190
1,Evgeniy Khudoleev,64,Russia,M_MEM_5_WPC,86.6,90,B,Multi-ply,M,,,,,,165,175,-180,,175,,,,,,175
2,Wolfgang Loof,62,Germany,M_MEM_5_WPC,88.5,90,B,Multi-ply,M,,,,,,160,167.5,-172.5,,167.5,,,,,,167.5
1,Roland Schubert,71,Germany,M_MEM_7_WPC,87.6,90,B,Multi-ply,M,,,,,,142.5,-150,-150,,142.5,,,,,,142.5
1,Peter Schwarz,71,Germany,M_MEM_7_WPC,119.1,125,B,Multi-ply,M,,,,,,87.5,-100,-100,,87.5,,,,,,87.5
DQ,IIkka Lukkarinen,20,Finland,M_OEM_WPC,136.6,140,B,Multi-ply,M,,,,,,-320,-325,-335,,,,,,,,
DQ,IIkka Lukkarinen,20,Finland,M_JEM_WPC,136.6,140,B,Multi-ply,M,,,,,,-320,-325,-335,,,,,,,,
DQ,Dmitry Gorbachev,41,Russia,M_OEM_WPC,109.8,110,B,Multi-ply,M,,,,,,-325,-325,-325,,,,,,,,
DQ,Dmitry Gorbachev,41,Russia,M_MEM_1_WPC,109.8,110,B,Multi-ply,M,,,,,,-325,-325,-325,,,,,,,,
1,Anatoly Nefëdov,48,Russia,M_MEM_2_WPC,67.5,67.5,B,Multi-ply,M,,,,,,160,170,-175,,170,,,,,,170
DQ,Didier Michelon,47,France,M_OEM_WPC,114.1,125,B,Multi-ply,M,,,,,,-320,-320,-320,,,,,,,,
DQ,Didier Michelon,47,France,M_MEM_2_WPC,114.1,125,B,Multi-ply,M,,,,,,-320,-320,-320,,,,,,,,
1,Andis Kaspars,35,Latvia,M_SEM_WPC,108.6,110,B,Multi-ply,M,,,,,,165,-225,-225,,165,,,,,,165
1,Ivars Ozols,33,Latvia,M_SEM_WPC,111.4,125,B,Multi-ply,M,,,,,,290,300,-312.5,,300,,,,,,300
