Name,Sex,AgeClass,BodyweightKg,WeightClassKg,Division,Equipment,Event,Squat1Kg,Squat2Kg,Squat3Kg,Squat4Kg,Best3SquatKg,Bench1Kg,Bench2Kg,Bench3Kg,Bench4Kg,Best3BenchKg,Deadlift1Kg,Deadlift2Kg,Deadlift3Kg,Deadlift4Kg,Best3DeadliftKg,TotalKg,Place
Samantha Wilson,F,24-39,59.45,60,F-O,Wraps,SBD,105,-112.5,112.5,,112.5,57.5,62.5,-65,,62.5,125,132.5,140,,140,315,1
Rebecca Hickman,F,24-39,56.15,60,F-O,Wraps,SBD,95,105,110,,110,45,50,52.5,,52.5,105,115,120,,120,282.5,2
Carol McLean,F,40-44,67.4,67.5,F-M1,Wraps,SBD,100,110,115,,115,47.5,52.5,-55,,52.5,130,140,151,157.5,151,318.5,1
Joanne Caldwell,F,45-49,74.7,75,F-M2,Wraps,SBD,-125,135,-145,,135,85,87.5,90,-100,90,120,130,140,,140,365,1
Michelle Gilmour,F,24-39,74.6,75,F-O,Wraps,SBD,90,92.5,-97.5,,92.5,60,62.5,-65,,62.5,120,130,135,,135,290,1
Mhairi Shields,F,24-39,79.95,82.5,F-O,Wraps,SBD,120,130,-135,,130,65,72.5,-77.5,,72.5,130,137.5,-142.5,,137.5,340,1
Sinead Rooney,F,24-39,82.05,82.5,F-O,Wraps,SBD,105,115,120,,120,55,62.5,-65,,62.5,125,135,-145,,135,317.5,2
Cara Droy,F,24-39,82.4,82.5,F-O,Wraps,SBD,-125,-125,-125,,,75,-77.5,-80,,75,,,,,,,DQ
Lisa Simonette,F,24-39,83.5,90,F-O,Wraps,SBD,90,100,110,,110,72.5,75,80,,80,140,150,160,,160,350,1
Alison Smith,F,24-39,97.65,110,F-O,Wraps,SBD,-145,-160,-160,,,90,100,-110,,100,130,150,-160,,150,,DQ
Jeri Jones,F,20-23,95.85,110,F-J,Wraps,SBD,160,-170,170,,170,70,77.5,-80,80,77.5,150,155,-160,-160,155,402.5,1
Alistair Burns,M,24-39,74.85,75,M-O,Wraps,SBD,-180,180,200,,200,120,130,-135,,130,-200,215,227.5,,227.5,557.5,1
Andrew Smith #2,M,24-39,80.65,82.5,M-O,Wraps,SBD,235,-252.5,260,,260,150,-157.5,157.5,,157.5,250,-272.5,,,250,667.5,1
Adrian McKinnon,M,24-39,81.25,82.5,M-O,Wraps,SBD,190,-200,-200,,190,120,130,137.5,,137.5,200,225,235,,235,562.5,2
Ryan Alexander #1,M,24-39,88.65,90,M-O,Wraps,SBD,-270,270,290,,290,160,-170,-177.5,,160,260,280,-290,,280,730,1
Robbie Stewart,M,24-39,87.65,90,M-O,Wraps,SBD,170,190,202.5,,202.5,132.5,-150,160,,160,230,252.5,270,,270,632.5,2
Chris Watson,M,24-39,85.65,90,M-O,Wraps,SBD,185,195,210,,210,130,135,-137.5,,135,240,262.5,-272.5,,262.5,607.5,3
David Hickey,M,24-39,89.3,90,M-O,Wraps,SBD,180,190,200,,200,115,120,122.5,,122.5,187.5,200,-210,,200,522.5,4
Robert Hopkinson,M,20-23,98.85,100,M-J,Wraps,SBD,260,270,275,,275,162.5,170,-175,,170,262.5,272.5,280,,280,725,1
Robert Masson,M,24-39,93.15,100,M-O,Raw,SBD,250,260,270,,270,145,152.5,155,,155,260,,,,260,685,1
Owen Simpson,M,24-39,99.15,100,M-O,Wraps,SBD,240,250,260,,260,135,145,-150,,145,250,260,-270,,260,665,2
Martyn Keenan,M,24-39,96.2,100,M-O,Wraps,SBD,190,205,217.5,,217.5,105,115,120,,120,220,235,245,,245,582.5,3
Robert Caldwell,M,50-54,108.8,110,M-M3,Wraps,SBD,-200,-211.5,-212.5,,,152.5,162.5,-172.5,,162.5,200,210,220,,220,,DQ
Michael Spink,M,24-39,107.25,110,M-O,Wraps,SBD,290,310,320,,320,185,-195,195,,195,290,-305,305,,305,820,1
Michael Baxter,M,24-39,103.45,110,M-O,Wraps,SBD,200,215,220,,220,140,150,157.5,,157.5,255,275,290,,290,667.5,2
Danyle Ferguson,M,24-39,108.1,110,M-O,Wraps,SBD,185,195,-205,,195,130,135,-140,,135,240,255,-265,,255,585,3
Ryan Mochrie,M,24-39,109.95,110,M-O,Wraps,SBD,-180,200,220,,220,130,137.5,-142.5,,137.5,200,220,-237.5,,220,577.5,4
Ross Kincaid,M,24-39,109.9,110,M-O,Wraps,SBD,195,205,-220,,205,135,142.5,-147.5,,142.5,190,205,-217.5,,205,552.5,5
Dean Caldwell,M,40-44,116.35,125,M-M1,Wraps,SBD,240,260,272.5,,272.5,150,160,165,,165,245,260,272.5,,272.5,710,1
Delroy McQueen,M,24-39,112.2,125,M-O,Wraps,SBD,320,337.5,-350,,337.5,150,,,,150,320,360,-390,,360,847.5,1
Darren Leggatt,M,24-39,124.95,125,M-O,Wraps,SBD,270,285,290,,290,170,180,185,,185,220,240,260,,260,735,2
Chris Woods,M,24-39,124.55,125,M-O,Wraps,SBD,240,255,260,,260,155,162.5,165,,165,285,-302.5,-302.5,,285,710,3
Alasdair MacLeod #1,M,24-39,120.9,125,M-O,Wraps,SBD,255,265,-277.5,,265,-170,-170,170,,170,250,265,-275,,265,700,4
John Sutherland,M,24-39,120.75,125,M-O,Wraps,SBD,210,225,237.5,,237.5,160,167.5,170,,170,225,,,,225,632.5,5
Nick Whitecross,M,24-39,138.8,140,M-O,Wraps,SBD,260,275,285,,285,220,230,240.5,245.5,240.5,255,275,285,,285,810.5,1
Thomas Brown,M,24-39,172.1,140+,M-O,Wraps,SBD,250,,,,250,190,-195,,,190,,,,,,,DQ
Neil Stewart,M,40-44,105.4,110,M-M1-E,Multi-ply,SBD,-270,-280,,,,,,,,,,,,,,,DQ
Derek Alexander,M,40-44,104.35,110,M-M1-E,Multi-ply,SBD,-265,265,285,,285,190,200,,,200,-270,270,-290,,270,755,1
Ronald Simpson,M,70-74,104,110,M-M7-E,Multi-ply,SBD,-140,-140,150,,150,-110,115,-120,-120.5,115,150,160,170,,170,435,1
Patrick McCloskey #1,M,20-23,104.65,110,M-J-E,Multi-ply,SBD,247.5,265,280,,280,145,155,165,,165,220,240,260,,260,705,1
Neil Elliott,M,45-49,122.45,125,M-M2-E,Multi-ply,SBD,280,300,,,300,230,-240,-240,,230,280,300,,,300,830,1
Michelle Ryder,F,40-44,44,44,F-M1,Raw,D,,,,,,,,,,,100,105,107.5,,107.5,107.5,1
Jo Foster,F,45-49,65.95,67.5,F-M2,Raw,BD,,,,,,65,67.5,-72.5,,67.5,150,155,-165,,155,222.5,1
Alastair Reid,M,45-49,123.2,125,M-M2,Raw,BD,,,,,,130,137.5,142.5,,142.5,200,210,220,,220,362.5,1
Graeme Reid,M,24-39,121.05,125,M-O,Raw,B,,,,,,135,-145,-145,,135,,,,,,135,1
William Barnetson,M,24-39,115.55,125,M-O,Raw,D,,,,,,,,,,,250,265,-270,,265,265,1
Thomas Parkes,M,24-39,139.45,140,M-O-E,Multi-ply,D,,,,,,,,,,,-335,335,356,,356,356,1
