Name,Color
Aaron Ecton,america
Adam Leidigh,finland
Albert Alvarado,red_to_white
Alberto Portillo,red
Alec Dorner,lightblue
Alessio Gheller,italy
Alexander Walters,gold
Alice Swift,rainbow
Allison Hind,red
Amanda Kohatsu,green
Amanda Wolff,green_to_gray
Andre Miranda,orange_to_green
Andrew Herbert,purple
Armando Carreon,red
Arran Sullivan,red bold
Ashleigh Campbell,lightblue
Ashley Contorno,purple_to_teal
Blake Parado,green
Bobby Morgan #2,red
Bob Merkh,america
Boris Lerner,lightblue
Brady Stewart,america
Brian Goldstein #1,rainbow
Brianne Barry,purple_to_green
Bridget Morgan,lightblue
Brittainy Chown,purple_to_turquoise
Brody Laybolt,royalblue
Bryan Hartsel,yellow
Carina Davis,pink
Carlos Cristan,carlos italic
Carter Claflin,lightblue_to_white
Cat Hawkins,neongreen_to_white
Celia Gomez,lightblue
Chad Penson,red_to_white
Charles Binkley,small-caps america
Charlie Hoosen-Sykes,rainbow
Chloe Lansing,blue_to_lightblue
Chris Lentini,yellow_to_purple
Chris Lindsay,royalblue
Chris Meadows,red
Chrissy Castellano,lightpink
Christopher Young #1,darkgreen
Christy James-Moser,lightblue
Ciarra Hutton,turquoise
Dan Green,green
Daniel Morjal,chicago_bears
Daphne Zhang,red
Dave Baker,rainbow
David Balsdon #1,purple
David Jasiulewicz,royalblue
David Osborn #1,gold
David O'Sullivan,rainbow
David Patterson #1,america bold
Dean Wyatt,lightblue
Dennis Barstow,lightblue
Derek Forlini,red
Dominique Fisher #1,red
Dustin Sixkiller,america
Dylan Mayer,finland
Ellen Seidel,lightblue
Emily Blastock,pink_to_yellow_to_purple
Erika Hipwell,red
Erika Stevens,red
Esther Lee,lightblue
Fardin Ahmed,lightblue
Garrett Fear,purple bold
Gemma Lucas,england
George LeBlanc,darkgreen
Gerren Short,blue_to_yellow
Glenn Kirkpatrick,mike_overkamp
Greg Nuckols,helvetica
Greg Simmons #1,royalblue
Hailie Slack,red_to_yellow
Halldór Jens Vilhjálmsson,small-caps iceland
Hannah Stephenson,cranberryred
Harrison Stickelman,yellow
Isabella Martin,rainbow
Ivy Knight,yellow
Jacob Winstead #1,blue_to_gold
James Range,red
James Rowe,red_to_white
James Skinner,lightblue
James Strickland,yellow
Jamie Christenson,small-caps red
Jason Legrand,neongreen
Jawon Garrison,red
Jeanne Murdock,pink_to_purple_to_blue
Jeanie Shellman,purple
Jeff Justo,bold
Jenn Rotsinger,rainbow
Jennessa Labbate,blue_to_green
Jeremy Willis #1,red
Jeris Hall,royalblue bold comicsans
Jesica Swisher,red_to_white
Jesse Lanuevo,olivegreen
Jessica Brown #1,purple_to_green
Jessica Pippen,red
Jessica Rogers,green_to_white
Jetter Lewis,jetter_lewis
Joe Sullivan,lightblue
John Reynolds,purple
Jonathon Farill,america
Joseph Park,rainbow
Josh Enmark,small-caps neongreen
Josh Sutelman,all_red_top_down
Josh Walker #1,red
Jo Whiteley,purple
Johan Frisk,johan_frisk fire_animation
Julius Erwin,lightblue
Justin Jackson #1,lightblue algerian
Kai Ma,rainbow
Kalle Räsänen,finland
Kathryn Mohide,neongreen
Kathy Czukor,hotpink
Katie DeMartino,rainbow
K'Aunica Byrd,red_to_white_to_red
Kayden Weller,red
Kayla Anderson #1,purple_to_silver
Kellie Montalvan,lightblue
Kellin Lee,limegreen
Kelly Gibson Bateman,america
Kerrie Montalvan,lightblue
Kirstie Armstead,pink_to_purple
Kris Lewis #1,rainbow
Kristen Bellon,purple
Kristy Hawkins,green
Kylee Craig,lightpink
Kyle McKee,yellow
Kyle Phipps,solidyellow
Kyle Stewart,green
Lanisha Adams,rainbow
Laura Kelly,laura_kelly
Leigh Estrada,turquoise
Leonetta Richardson,yellow
Lisa Tai,lightpink
Lucinda Lorne,red bold comicsans
Lynette Brown,orange
Matt Pearce,small-caps letter-spacing-2 helvetica matt_gradient
Matthew Provin,small-caps lightazure
Mauricio Standley,red bold
Meg Robertson,red
Michael Flynn #1,emeraldgreen
Michael Petyak,lightblue
Michael Vessia,flash3
Michelle Leu,salmonpink
Michelle Rennick,red bold
Michelle Sothen,lightpink
Mike Overkamp,mike_overkamp
Mike Schollbach,yellow
Nathan Kim,red_to_white
Nikki Merson,pink_to_white
Ogden J Myklebust III,chartreuse_yellow
Patria Jimenez,millennial_pink_color_palette
Patrick Jeffries,america
Paul Jackson #1,royalblue
Peter Pantazopoulos,rainbow
Peter Spence,peter_spence
Phillip Lake,green
Ranson Lee,royalblue
Ray Jiminez,royalblue
Rebecca Bachman,limegreen_to_gray
Reyhan Roybal,rainbow
Rich Sadiv,red
Rick Simmons,lightblue
Riley Presnell,purple
Robert Simmons #1,rainbow
Rob Hall,rob_hall
Rob Lineker,neongreen
Robyn Turnbull,rainbow
Ryan Jones #1,gold bold
Ryan O'Neill,rainbow bold
Ryan Rubio,orange
Samantha Shinavier,pink_to_purple_to_blue
Sarah Wellberg,green
Sarah Wheal,lightblue
Sara Schiff,purple_to_green
Shaun Davis,royalblue
Shelby Halligan,limegreen_to_green
Spencer Key,orange
Stefanie Cohen,bold red
Steve Denison,lightblue
Susan Salazar,lightblue
Tara Webber,green
Taylor Haney,red_to_purple
Tenaya Tuteur,turquoise_to_magenta
Terrian Ashley,purple
Tim Lease,america
TJ Dunsmoor,emeraldgreen
Tom Kallas,red
Tommy O'Connor,ireland
Tracey Berg-Fulton,hotpink
Travis P. Rogers,gold
Trystan Oakley,glow3
Tu Le #1,blue_to_yellow
Tyson Andrews,neongreen
Vanessa Ferla,teal_to_white
Vanessa Torres,pink_to_lightblue
Véronique Fradette,canada
Vincent Raia,red
Wendy McGirr,neongreen
William E Duncan,gold
Yu Gui,red_to_yellow_to_red
Zachary Langdon,royalblue
Zachary Lockhart,red
Zachary Nathaniel Hall,royalblue
Zachary Voase,rainbow small-caps
Zahir Khudayarov,orange
Zsuzsanna Tóth,hotpink bold papyrus
